{
  "page": 3,
  "total_results": 10000,
  "total_pages": 500,
  "results": [
    {
      "id": 101,
      "original_title": "Movie Original 101",
      "title": "Movie 101",
      "overview": "A menu payload movie",
      "poster_path": "/poster-101.jpg",
      "backdrop_path": "/backdrop-101.jpg",
      "popularity": 49.5,
      "vote_average": 7.2,
      "vote_count": 1200,
      "release_date": "2024-05-17",
      "genres": null,
      "runtime": null,
      "status": null,
      "video": false,
      "keywords": null,
      "images": null,
      "production_countries": null,
      "character": null,
      "department": null
    },
    {
      "id": 102,
      "original_title": "Movie Original 102",
      "title": "Movie 102",
      "overview": "Second menu movie",
      "poster_path": null,
      "backdrop_path": null,
      "popularity": 10.0,
      "vote_average": 6.5,
      "vote_count": 300,
      "release_date": "2023-11-01",
      "genres": null,
      "runtime": null,
      "status": null,
      "video": false,
      "keywords": null,
      "images": null,
      "production_countries": null,
      "character": null,
      "department": null
    }
  ]
}
